{
	"info": {
		"_postman_id": "a1278444-2804-41ae-b4ce-6b1b40f3eef1",
		"name": "Produk api",
		"schema": "https://schema.getpostman.com/json/collection/v2.1.0/collection.json",
		"_exporter_id": "16880544"
	},
	"item": [
		{
			"name": "GetAllProduk",
			"request": {
				"method": "GET",
				"header": [],
				"url": {
					"raw": "http://localhost:8000/produk",
					"protocol": "http",
					"host": [
						"localhost"
					],
					"port": "8000",
					"path": [
						"produk"
					]
				}
			},
			"response": []
		},
		{
			"name": "AddProduk",
			"request": {
				"method": "POST",
				"header": [],
				"body": {
					"mode": "raw",
					"raw": "[\r\n    {\r\n    \"nama\": \"Topi\",\r\n    \"kategori\": \"Topi\",\r\n    \"deskripsi\": \"ini topi\",\r\n    \"gambar\": [{\r\n                \"urlImage\": \"https://images.tokopedia.net/img/cache/900/product-1/2020/2/13/88273839/88273839_6a34f815-038c-4ba1-907f-7ffdb9b8cc00_1000_1000\"\r\n            }],\r\n    \"warna\": [\r\n        \"Biru\"\r\n    ],\r\n    \"variant\": [\r\n        {\r\n            \"harga_ukuran_S\": \"10000\"\r\n        },\r\n        {\r\n            \"harga_ukuran_M\": 0\r\n        },\r\n        {\r\n            \"harga_ukuran_L\": 0\r\n        },\r\n        {\r\n            \"harga_ukuran_XL\": 0\r\n        },\r\n        {\r\n            \"harga_ukuran_XLL\": 0\r\n        }\r\n    ]\r\n}\r\n]",
					"options": {
						"raw": {
							"language": "json"
						}
					}
				},
				"url": {
					"raw": "http://localhost:8000/produk",
					"protocol": "http",
					"host": [
						"localhost"
					],
					"port": "8000",
					"path": [
						"produk"
					]
				}
			},
			"response": []
		},
		{
			"name": "DeleteProdukById",
			"request": {
				"method": "DELETE",
				"header": [],
				"url": {
					"raw": "http://localhost:8000/produk/",
					"protocol": "http",
					"host": [
						"localhost"
					],
					"port": "8000",
					"path": [
						"produk",
						""
					]
				}
			},
			"response": []
		},
		{
			"name": "GetDetailById",
			"request": {
				"method": "GET",
				"header": [],
				"url": {
					"raw": "http://localhost:8000/produk?id=6434b16487dc57bfeb1c9e12",
					"protocol": "http",
					"host": [
						"localhost"
					],
					"port": "8000",
					"path": [
						"produk"
					],
					"query": [
						{
							"key": "id",
							"value": "6434b16487dc57bfeb1c9e12"
						}
					]
				}
			},
			"response": []
		},
		{
			"name": "UpdateProdukById",
			"request": {
				"method": "PUT",
				"header": [],
				"body": {
					"mode": "raw",
					"raw": "[\r\n    {\r\n        \"nama\": \"Baju Pns Harian\",\r\n        \"kategori\": \"Pakaian\",\r\n        \"deskripsi\": \"ini adalah baju pns\",\r\n        \"gambar\": [\r\n            {\r\n                \"urlImage\": \"https://images.tokopedia.net/img/cache/900/product-1/2020/2/13/88273839/88273839_6a34f815-038c-4ba1-907f-7ffdb9b8cc00_1000_1000\"\r\n            }\r\n        ],\r\n        \"warna\": [\r\n            {\r\n                \"nama\": \"coklat muda\"\r\n            },\r\n            {\r\n                \"nama\": \"coklat tua\"\r\n            }\r\n        ],\r\n        \"variant\": [\r\n            {\r\n                \"ukuran\": \"S\",\r\n                \"harga\": 40000\r\n            },\r\n            {\r\n                \"ukuran\": \"M\",\r\n                \"harga\": 60000\r\n            },\r\n            {\r\n                \"ukuran\": \"L\",\r\n                \"harga\": 80000\r\n            },\r\n            {\r\n                \"ukuran\": \"XL\",\r\n                \"harga\": 100000\r\n            },\r\n            {\r\n                \"ukuran\": \"XXL\",\r\n                \"harga\": 120000\r\n            }\r\n        ],\r\n        \"createdAt\": \"2023-04-10T11:55:33.567Z\",\r\n        \"updatedAt\": \"2023-04-10T11:55:33.567Z\",\r\n        \"id\": \"6434b16487dc57bfeb1c9e12\"\r\n    },\r\n    {\r\n        \"nama\": \"Topi\",\r\n        \"kategori\": \"Topi\",\r\n        \"deskripsi\": \"ini topi\",\r\n        \"gambar\": [\r\n            {\r\n                \"urlImage\": \"https://images.tokopedia.net/img/cache/900/product-1/2020/2/13/88273839/88273839_6a34f815-038c-4ba1-907f-7ffdb9b8cc00_1000_1000\"\r\n            }\r\n        ],\r\n        \"warna\": [\r\n            \"Biru\"\r\n        ],\r\n        \"variant\": [\r\n            {\r\n                \"harga_ukuran_S\": \"10000\"\r\n            },\r\n            {\r\n                \"harga_ukuran_M\": 0\r\n            },\r\n            {\r\n                \"harga_ukuran_L\": 0\r\n            },\r\n            {\r\n                \"harga_ukuran_XL\": 0\r\n            },\r\n            {\r\n                \"harga_ukuran_XLL\": 0\r\n            }\r\n        ],\r\n        \"createdAt\": \"2023-04-11T01:07:22.731Z\",\r\n        \"updatedAt\": \"2023-04-11T01:07:22.731Z\",\r\n        \"id\": \"6434b2ca87dc57bfeb1c9e19\"\r\n    }\r\n]",
					"options": {
						"raw": {
							"language": "json"
						}
					}
				},
				"url": {
					"raw": "http://localhost:8000/produk?id",
					"protocol": "http",
					"host": [
						"localhost"
					],
					"port": "8000",
					"path": [
						"produk"
					],
					"query": [
						{
							"key": "id",
							"value": null
						}
					]
				}
			},
			"response": []
		}
	]
}